IMAGE  bgtile       "tiles/bgtile.png"        0
IMAGE  background   "background/cthulhu.png"  0

SPRITE spBall   "sprites/ball.png"          1   1   NONE 
SPRITE spPaddle "sprites/paddle.png"        4   1   NONE 
SPRITE spBrickG "sprites/brick_green.png"   2   1   NONE