WAV sfx_ball_hit        "sfx/ball_hit.wav"      XGM 
WAV sfx_ball_hit_wall   "sfx/ball_hit_wall.wav" XGM 
WAV sfx_ball_die        "sfx/ball_die.wav"      XGM 
WAV sfx_victory         "sfx/victory.wav"       XGM